tests/sim_build/dut.vcd
$date
	Sun Jun  8 19:29:02 2025
$end
$version
	Icarus Verilog
$end
$timescale
	1ps
$end
$scope module dut $end
$var wire 1 ! CLK $end
$var wire 1 " RST_N $end
$var wire 1 # \a_data$whas $end
$var wire 1 $ \a_ff$CLR $end
$var wire 1 % \a_ff$DEQ $end
$var wire 1 & \a_ff$D_IN $end
$var wire 1 ' \a_ff$ENQ $end
$var wire 1 ( \b_data$whas $end
$var wire 1 ) \b_ff$CLR $end
$var wire 1 * \b_ff$DEQ $end
$var wire 1 + \b_ff$D_IN $end
$var wire 1 , \b_ff$ENQ $end
$var wire 1 - \counter$EN $end
$var wire 1 . \pwyff_deq$whas $end
$var wire 3 / read_address [2:0] $end
$var wire 1 0 read_en $end
$var wire 1 1 read_rdy $end
$var wire 3 2 write_address [2:0] $end
$var wire 1 3 write_data $end
$var wire 1 4 write_en $end
$var wire 1 5 write_rdy $end
$var wire 1 6 \y_ff$CLR $end
$var wire 1 7 \y_ff$DEQ $end
$var wire 1 8 \y_ff$D_IN $end
$var wire 1 9 \y_ff$ENQ $end
$var wire 1 : \y_ff$FULL_N $end
$var wire 1 ; \y_ff$EMPTY_N $end
$var wire 1 < \y_ff$D_OUT $end
$var wire 8 = \counter$D_IN [7:0] $end
$var wire 1 > \b_ff$FULL_N $end
$var wire 1 ? \b_ff$EMPTY_N $end
$var wire 1 @ \b_ff$D_OUT $end
$var wire 1 A \a_ff$FULL_N $end
$var wire 1 B \a_ff$EMPTY_N $end
$var wire 1 C \a_ff$D_OUT $end
$var reg 8 D counter [7:0] $end
$var reg 1 E read_data $end
$scope module a_ff $end
$var wire 1 ! CLK $end
$var wire 1 $ CLR $end
$var wire 1 % DEQ $end
$var wire 1 & D_IN $end
$var wire 1 B EMPTY_N $end
$var wire 1 ' ENQ $end
$var wire 1 A FULL_N $end
$var wire 1 " RST $end
$var wire 1 F d0d1 $end
$var wire 1 G d0di $end
$var wire 1 H d0h $end
$var wire 1 I d1di $end
$var wire 1 C D_OUT $end
$var parameter 1 J guarded $end
$var parameter 32 K width $end
$var reg 1 C data0_reg $end
$var reg 1 L data1_reg $end
$var reg 1 M empty_reg $end
$var reg 1 N full_reg $end
$scope begin error_checks $end
$var reg 1 O deqerror $end
$var reg 1 P enqerror $end
$upscope $end
$upscope $end
$scope module b_ff $end
$var wire 1 ! CLK $end
$var wire 1 ) CLR $end
$var wire 1 * DEQ $end
$var wire 1 + D_IN $end
$var wire 1 ? EMPTY_N $end
$var wire 1 , ENQ $end
$var wire 1 " RST $end
$var wire 1 > FULL_N $end
$var parameter 1 Q guarded $end
$var parameter 32 R width $end
$var reg 1 @ D_OUT $end
$var reg 1 S empty_reg $end
$scope begin error_checks $end
$var reg 1 T deqerror $end
$var reg 1 U enqerror $end
$upscope $end
$upscope $end
$scope module y_ff $end
$var wire 1 ! CLK $end
$var wire 1 6 CLR $end
$var wire 1 7 DEQ $end
$var wire 1 8 D_IN $end
$var wire 1 < D_OUT $end
$var wire 1 ; EMPTY_N $end
$var wire 1 9 ENQ $end
$var wire 1 : FULL_N $end
$var wire 1 " RST $end
$var wire 1 V d0d1 $end
$var wire 1 W d0di $end
$var wire 1 X d0h $end
$var wire 1 Y d1di $end
$var parameter 1 Z guarded $end
$var parameter 32 [ width $end
$var reg 1 \ data0_reg $end
$var reg 1 ] data1_reg $end
$var reg 1 ^ empty_reg $end
$var reg 1 _ full_reg $end
$scope begin error_checks $end
$var reg 1 ` deqerror $end
$var reg 1 a enqerror $end
$upscope $end
$upscope $end
$upscope $end
$enddefinitions $end
$comment Show the parameter values. $end
$dumpall
b1 [
1Z
b1 R
1Q
b1 K
1J
$end
#0
$dumpvars
0a
0`
1_
0^
0]
0\
0Y
1X
0W
0V
0U
0T
0S
0P
0O
1N
0M
0L
0I
0H
1G
0F
0E
b0 D
xC
0B
1A
0@
0?
1>
b1 =
0<
0;
1:
09
x8
07
06
15
14
03
b100 2
11
z0
bz /
x.
1-
0,
0+
0*
0)
0(
1'
0&
0%
0$
1#
1"
1!
$end
#5000
0!
#10000
0'
0#
04
1H
0G
08
0I
0C
1B
1M
b10 =
b1 D
1!
#15000
0!
#20000
1,
1(
14
b101 2
b11 =
b10 D
1!
#25000
0!
#30000
0(
04
0,
0>
1?
1S
b100 =
b11 D
1!
#35000
0!
#40000
b101 =
b100 D
1!
#45000
0!
#50000
b110 =
b101 D
1!
#55000
0!
#60000
b111 =
b110 D
1!
#65000
0!
#70000
b1000 =
b111 D
1!
#75000
0!
#80000
b1001 =
b1000 D
1!
#85000
0!
#90000
b1010 =
b1001 D
1!
#95000
0!
#100000
b1011 =
b1010 D
1!
#105000
0!
#110000
b1100 =
b1011 D
1!
#115000
0!
#120000
b1101 =
b1100 D
1!
#125000
0!
#130000
b1110 =
b1101 D
1!
#135000
0!
#140000
b1111 =
b1110 D
1!
#145000
0!
#150000
b10000 =
b1111 D
1!
#155000
0!
#160000
b10001 =
b10000 D
1!
#165000
0!
#170000
b10010 =
b10001 D
1!
#175000
0!
#180000
b10011 =
b10010 D
1!
#185000
0!
#190000
b10100 =
b10011 D
1!
#195000
0!
#200000
b10101 =
b10100 D
1!
#205000
0!
#210000
b10110 =
b10101 D
1!
#215000
0!
#220000
b10111 =
b10110 D
1!
#225000
0!
#230000
b11000 =
b10111 D
1!
#235000
0!
#240000
b11001 =
b11000 D
1!
#245000
0!
#250000
b11010 =
b11001 D
1!
#255000
0!
#260000
b11011 =
b11010 D
1!
#265000
0!
#270000
b11100 =
b11011 D
1!
#275000
0!
#280000
b11101 =
b11100 D
1!
#285000
0!
#290000
b11110 =
b11101 D
1!
#295000
0!
#300000
b11111 =
b11110 D
1!
#305000
0!
#310000
b100000 =
b11111 D
1!
#315000
0!
#320000
b100001 =
b100000 D
1!
#325000
0!
#330000
b100010 =
b100001 D
1!
#335000
0!
#340000
b100011 =
b100010 D
1!
#345000
0!
#350000
b100100 =
b100011 D
1!
#355000
0!
#360000
b100101 =
b100100 D
1!
#365000
0!
#370000
b100110 =
b100101 D
1!
#375000
0!
#380000
b100111 =
b100110 D
1!
#385000
0!
#390000
b101000 =
b100111 D
1!
#395000
0!
#400000
b101001 =
b101000 D
1!
#405000
0!
#410000
b101010 =
b101001 D
1!
#415000
0!
#420000
b101011 =
b101010 D
1!
#425000
0!
#430000
b101100 =
b101011 D
1!
#435000
0!
#440000
b101101 =
b101100 D
1!
#445000
0!
#450000
b101110 =
b101101 D
1!
#455000
0!
#460000
b101111 =
b101110 D
1!
#465000
0!
#470000
b110000 =
b101111 D
1!
#475000
0!
#480000
b110001 =
b110000 D
1!
#485000
0!
#490000
b110010 =
b110001 D
1!
#495000
0!
#500000
0X
1W
1%
1*
19
b110011 =
b110010 D
1!
#505000
0!
#510000
1X
0W
x7
0%
0*
09
1;
1^
1>
0?
0S
0B
0M
b1 =
b0 D
1!
#515000
0!
#520000
b10 =
b1 D
1!
#525000
0!
#530000
b11 =
b10 D
1!
#535000
0!
#540000
b100 =
b11 D
1!
#545000
0!
#550000
b101 =
b100 D
1!
#555000
0!
#560000
b110 =
b101 D
1!
#565000
0!
#570000
b111 =
b110 D
1!
#575000
0!
#580000
b1000 =
b111 D
1!
#585000
0!
#590000
b1001 =
b1000 D
1!
#595000
0!
#600000
17
1.
10
b11 /
b1010 =
b1001 D
1!
#605000
0!
#610000
0.
00
07
0;
0^
b1011 =
b1010 D
1!
#615000
0!
#620000
0H
1G
1'
1#
14
b100 2
b1100 =
b1011 D
1!
#625000
0!
#630000
0'
0#
04
1H
0G
0I
1B
1M
b1101 =
b1100 D
1!
#635000
0!
#640000
1,
1(
14
1&
1+
13
b101 2
b1110 =
b1101 D
1!
#645000
0!
#650000
0(
04
18
0,
1@
0>
1?
1S
b1111 =
b1110 D
1!
#655000
0!
#660000
b10000 =
b1111 D
1!
#665000
0!
#670000
b10001 =
b10000 D
1!
#675000
0!
#680000
b10010 =
b10001 D
1!
#685000
0!
#690000
b10011 =
b10010 D
1!
#695000
0!
#700000
b10100 =
b10011 D
1!
#705000
0!
#710000
b10101 =
b10100 D
1!
#715000
0!
#720000
b10110 =
b10101 D
1!
#725000
0!
#730000
b10111 =
b10110 D
1!
#735000
0!
#740000
b11000 =
b10111 D
1!
#745000
0!
#750000
b11001 =
b11000 D
1!
#755000
0!
#760000
b11010 =
b11001 D
1!
#765000
0!
#770000
b11011 =
b11010 D
1!
#775000
0!
#780000
b11100 =
b11011 D
1!
#785000
0!
#790000
b11101 =
b11100 D
1!
#795000
0!
#800000
b11110 =
b11101 D
1!
#805000
0!
#810000
b11111 =
b11110 D
1!
#815000
0!
#820000
b100000 =
b11111 D
1!
#825000
0!
#830000
b100001 =
b100000 D
1!
#835000
0!
#840000
b100010 =
b100001 D
1!
#845000
0!
#850000
b100011 =
b100010 D
1!
#855000
0!
#860000
b100100 =
b100011 D
1!
#865000
0!
#870000
b100101 =
b100100 D
1!
#875000
0!
#880000
b100110 =
b100101 D
1!
#885000
0!
#890000
b100111 =
b100110 D
1!
#895000
0!
#900000
b101000 =
b100111 D
1!
#905000
0!
#910000
b101001 =
b101000 D
1!
#915000
0!
#920000
b101010 =
b101001 D
1!
#925000
0!
#930000
b101011 =
b101010 D
1!
#935000
0!
#940000
b101100 =
b101011 D
1!
#945000
0!
#950000
b101101 =
b101100 D
1!
#955000
0!
#960000
b101110 =
b101101 D
1!
#965000
0!
#970000
b101111 =
b101110 D
1!
#975000
0!
#980000
b110000 =
b101111 D
1!
#985000
0!
#990000
b110001 =
b110000 D
1!
#995000
0!
#1000000
b110010 =
b110001 D
1!
#1005000
0!
#1010000
0X
1W
1%
1*
19
b110011 =
b110010 D
1!
#1015000
0!
#1020000
1X
0W
1E
0%
0*
09
0B
0M
1>
0?
0S
1;
1^
1<
1\
b1 =
b0 D
1!
#1025000
0!
#1030000
b10 =
b1 D
1!
#1035000
0!
#1040000
b11 =
b10 D
1!
#1045000
0!
#1050000
b100 =
b11 D
1!
#1055000
0!
#1060000
b101 =
b100 D
1!
#1065000
0!
#1070000
b110 =
b101 D
1!
#1075000
0!
#1080000
b111 =
b110 D
1!
#1085000
0!
#1090000
b1000 =
b111 D
1!
#1095000
0!
#1100000
b1001 =
b1000 D
1!
#1105000
0!
#1110000
b1010 =
b1001 D
1!
#1115000
0!
#1120000
b1011 =
b1010 D
1!
#1125000
0!
#1130000
b1100 =
b1011 D
1!
#1135000
0!
#1140000
b1101 =
b1100 D
1!
#1145000
0!
#1150000
b1110 =
b1101 D
1!
#1155000
0!
#1160000
b1111 =
b1110 D
1!
#1165000
0!
#1170000
b10000 =
b1111 D
1!
#1175000
0!
#1180000
b10001 =
b10000 D
1!
#1185000
0!
#1190000
b10010 =
b10001 D
1!
#1195000
0!
#1200000
b10011 =
b10010 D
1!
#1205000
0!
#1210000
b10100 =
b10011 D
1!
#1215000
0!
#1220000
17
1.
10
b10101 =
b10100 D
1!
#1225000
0!
#1230000
0.
00
0E
07
0;
0^
b10110 =
b10101 D
1!
#1235000
0!
#1240000
0H
1G
1'
1#
14
b100 2
b10111 =
b10110 D
1!
#1245000
0!
#1250000
0'
0#
04
1H
0G
0I
1C
1B
1M
b11000 =
b10111 D
1!
#1255000
0!
#1260000
1,
1(
14
0&
0+
03
b101 2
b11001 =
b11000 D
1!
#1265000
0!
#1270000
0(
04
0,
0@
0>
1?
1S
b11010 =
b11001 D
1!
#1275000
0!
#1280000
b11011 =
b11010 D
1!
#1285000
0!
#1290000
b11100 =
b11011 D
1!
#1295000
0!
#1300000
b11101 =
b11100 D
1!
#1305000
0!
#1310000
b11110 =
b11101 D
1!
#1315000
0!
#1320000
b11111 =
b11110 D
1!
#1325000
0!
#1330000
b100000 =
b11111 D
1!
#1335000
0!
#1340000
b100001 =
b100000 D
1!
#1345000
0!
#1350000
b100010 =
b100001 D
1!
#1355000
0!
#1360000
b100011 =
b100010 D
1!
#1365000
0!
#1370000
b100100 =
b100011 D
1!
#1375000
0!
#1380000
b100101 =
b100100 D
1!
#1385000
0!
#1390000
b100110 =
b100101 D
1!
#1395000
0!
#1400000
b100111 =
b100110 D
1!
#1405000
0!
#1410000
b101000 =
b100111 D
1!
#1415000
0!
#1420000
b101001 =
b101000 D
1!
#1425000
0!
#1430000
b101010 =
b101001 D
1!
#1435000
0!
#1440000
b101011 =
b101010 D
1!
#1445000
0!
#1450000
b101100 =
b101011 D
1!
#1455000
0!
#1460000
b101101 =
b101100 D
1!
#1465000
0!
#1470000
b101110 =
b101101 D
1!
#1475000
0!
#1480000
b101111 =
b101110 D
1!
#1485000
0!
#1490000
b110000 =
b101111 D
1!
#1495000
0!
#1500000
b110001 =
b110000 D
1!
#1505000
0!
#1510000
b110010 =
b110001 D
1!
#1515000
0!
#1520000
0X
1W
1%
1*
19
b110011 =
b110010 D
1!
#1525000
0!
#1530000
1X
0W
1E
0%
0*
09
1;
1^
1>
0?
0S
0B
0M
b1 =
b0 D
1!
#1535000
0!
#1540000
b10 =
b1 D
1!
#1545000
0!
#1550000
b11 =
b10 D
1!
#1555000
0!
#1560000
b100 =
b11 D
1!
#1565000
0!
#1570000
b101 =
b100 D
1!
#1575000
0!
#1580000
b110 =
b101 D
1!
#1585000
0!
#1590000
b111 =
b110 D
1!
#1595000
0!
#1600000
b1000 =
b111 D
1!
#1605000
0!
#1610000
b1001 =
b1000 D
1!
#1615000
0!
#1620000
b1010 =
b1001 D
1!
#1625000
0!
#1630000
b1011 =
b1010 D
1!
#1635000
0!
#1640000
b1100 =
b1011 D
1!
#1645000
0!
#1650000
b1101 =
b1100 D
1!
#1655000
0!
#1660000
b1110 =
b1101 D
1!
#1665000
0!
#1670000
b1111 =
b1110 D
1!
#1675000
0!
#1680000
b10000 =
b1111 D
1!
#1685000
0!
#1690000
b10001 =
b10000 D
1!
#1695000
0!
#1700000
b10010 =
b10001 D
1!
#1705000
0!
#1710000
b10011 =
b10010 D
1!
#1715000
0!
#1720000
b10100 =
b10011 D
1!
#1725000
0!
#1730000
b10101 =
b10100 D
1!
#1735000
0!
#1740000
b10110 =
b10101 D
1!
#1745000
0!
#1750000
b10111 =
b10110 D
1!
#1755000
0!
#1760000
b11000 =
b10111 D
1!
#1765000
0!
#1770000
b11001 =
b11000 D
1!
#1775000
0!
#1780000
b11010 =
b11001 D
1!
#1785000
0!
#1790000
b11011 =
b11010 D
1!
#1795000
0!
#1800000
b11100 =
b11011 D
1!
#1805000
0!
#1810000
b11101 =
b11100 D
1!
#1815000
0!
#1820000
b11110 =
b11101 D
1!
#1825000
0!
#1830000
b11111 =
b11110 D
1!
#1835000
0!
#1840000
17
1.
10
b100000 =
b11111 D
1!
#1845000
0!
#1850000
0.
00
0E
07
0;
0^
b100001 =
b100000 D
1!
#1855000
0!
#1860000
0H
1G
1'
1#
14
1&
1+
13
b100 2
b100010 =
b100001 D
1!
#1865000
0!
#1870000
0'
0#
04
1H
0G
0I
1B
1M
b100011 =
b100010 D
1!
#1875000
0!
#1880000
1,
1(
14
b101 2
b100100 =
b100011 D
1!
#1885000
0!
#1890000
0(
04
0,
1@
0>
1?
1S
b100101 =
b100100 D
1!
#1895000
0!
#1900000
b100110 =
b100101 D
1!
#1905000
0!
#1910000
b100111 =
b100110 D
1!
#1915000
0!
#1920000
b101000 =
b100111 D
1!
#1925000
0!
#1930000
b101001 =
b101000 D
1!
#1935000
0!
#1940000
b101010 =
b101001 D
1!
#1945000
0!
#1950000
b101011 =
b101010 D
1!
#1955000
0!
#1960000
b101100 =
b101011 D
1!
#1965000
0!
#1970000
b101101 =
b101100 D
1!
#1975000
0!
#1980000
b101110 =
b101101 D
1!
#1985000
0!
#1990000
b101111 =
b101110 D
1!
#1995000
0!
#2000000
b110000 =
b101111 D
1!
#2005000
0!
#2010000
b110001 =
b110000 D
1!
#2015000
0!
#2020000
b110010 =
b110001 D
1!
#2025000
0!
#2030000
0X
1W
1%
1*
19
b110011 =
b110010 D
1!
#2035000
0!
#2040000
1X
0W
1E
0%
0*
09
0B
0M
1>
0?
0S
1;
1^
b1 =
b0 D
1!
#2045000
0!
#2050000
b10 =
b1 D
1!
#2055000
0!
#2060000
b11 =
b10 D
1!
#2065000
0!
#2070000
b100 =
b11 D
1!
#2075000
0!
#2080000
b101 =
b100 D
1!
#2085000
0!
#2090000
b110 =
b101 D
1!
#2095000
0!
#2100000
b111 =
b110 D
1!
#2105000
0!
#2110000
b1000 =
b111 D
1!
#2115000
0!
#2120000
b1001 =
b1000 D
1!
#2125000
0!
#2130000
b1010 =
b1001 D
1!
#2135000
0!
#2140000
b1011 =
b1010 D
1!
#2145000
0!
#2150000
b1100 =
b1011 D
1!
#2155000
0!
#2160000
b1101 =
b1100 D
1!
#2165000
0!
#2170000
b1110 =
b1101 D
1!
#2175000
0!
#2180000
b1111 =
b1110 D
1!
#2185000
0!
#2190000
b10000 =
b1111 D
1!
#2195000
0!
#2200000
b10001 =
b10000 D
1!
#2205000
0!
#2210000
b10010 =
b10001 D
1!
#2215000
0!
#2220000
b10011 =
b10010 D
1!
#2225000
0!
#2230000
b10100 =
b10011 D
1!
#2235000
0!
#2240000
b10101 =
b10100 D
1!
#2245000
0!
#2250000
b10110 =
b10101 D
1!
#2255000
0!
#2260000
b10111 =
b10110 D
1!
#2265000
0!
#2270000
b11000 =
b10111 D
1!
#2275000
0!
#2280000
b11001 =
b11000 D
1!
#2285000
0!
#2290000
b11010 =
b11001 D
1!
#2295000
0!
#2300000
b11011 =
b11010 D
1!
#2305000
0!
#2310000
b11100 =
b11011 D
1!
#2315000
0!
#2320000
b11101 =
b11100 D
1!
#2325000
0!
#2330000
b11110 =
b11101 D
1!
#2335000
0!
#2340000
b11111 =
b11110 D
1!
#2345000
0!
#2350000
b100000 =
b11111 D
1!
#2355000
0!
#2360000
b100001 =
b100000 D
1!
#2365000
0!
#2370000
b100010 =
b100001 D
1!
#2375000
0!
#2380000
b100011 =
b100010 D
1!
#2385000
0!
#2390000
b100100 =
b100011 D
1!
#2395000
0!
#2400000
b100101 =
b100100 D
1!
#2405000
0!
#2410000
b100110 =
b100101 D
1!
#2415000
0!
#2420000
b100111 =
b100110 D
1!
#2425000
0!
#2430000
b101000 =
b100111 D
1!
#2435000
0!
#2440000
b101001 =
b101000 D
1!
#2445000
0!
#2450000
b101010 =
b101001 D
1!
#2455000
0!
#2460000
17
1.
10
b101011 =
b101010 D
1!
#2465000
0!
#2470000
0.
00
0E
07
0;
0^
b101100 =
b101011 D
1!
#2475000
0!
#2480000
b101101 =
b101100 D
1!
